<?xml version="1.0" encoding="utf-8"?>
<!-- Generator: Adobe Illustrator 21.1.0, SVG Export Plug-In . SVG Version: 6.00 Build 0)  -->
<svg version="1.1" id="Layer_1" xmlns="http://www.w3.org/2000/svg" xmlns:xlink="http://www.w3.org/1999/xlink" x="0px" y="0px"
	 viewBox="0 0 49.5 51" style="enable-background:new 0 0 49.5 51;" xml:space="preserve">
<style type="text/css">
	.st0{fill:#999999;}
	.st1{fill:url(#SVGID_1_);}
	.st2{fill:#FFFFFF;}
	.st3{fill:url(#SVGID_2_);}
	.st4{fill:url(#SVGID_3_);}
	.st5{fill:url(#SVGID_4_);}
	.st6{fill:#BBAD95;}
	.st7{fill:#E3DCC7;}
	.st8{fill:url(#SVGID_5_);}
	.st9{fill:url(#SVGID_6_);}
	.st10{fill:url(#SVGID_7_);}
	.st11{fill:url(#SVGID_8_);}
	.st12{fill:url(#SVGID_9_);}
	.st13{fill:url(#SVGID_10_);}
	.st14{fill:url(#SVGID_11_);}
	.st15{fill:url(#SVGID_12_);}
	.st16{fill:url(#SVGID_13_);}
	.st17{fill:url(#SVGID_14_);}
	.st18{fill:url(#SVGID_15_);}
	.st19{fill:url(#SVGID_16_);}
	.st20{fill:url(#SVGID_17_);}
	.st21{fill:url(#SVGID_18_);}
	.st22{fill:url(#SVGID_19_);}
	.st23{fill:url(#SVGID_20_);}
	.st24{fill:url(#SVGID_21_);}
	.st25{fill:url(#SVGID_22_);}
	.st26{fill:url(#SVGID_23_);}
	.st27{fill:url(#SVGID_24_);}
</style>
<g>
	<ellipse transform="matrix(0.1694 -0.9855 0.9855 0.1694 -22.0844 71.1768)" class="st0" cx="31.2" cy="48.7" rx="0.3" ry="4.4"/>
	<g>
		
			<radialGradient id="SVGID_1_" cx="-1729.8856" cy="727.2559" r="1.939" gradientTransform="matrix(13.3885 2.3015 2.3015 -13.3885 21520.457 13744.498)" gradientUnits="userSpaceOnUse">
			<stop  offset="0" style="stop-color:#FEF6A6"/>
			<stop  offset="0.2084" style="stop-color:#FEFF9E"/>
			<stop  offset="0.4781" style="stop-color:#FCD855"/>
			<stop  offset="0.7153" style="stop-color:#F6D120"/>
			<stop  offset="1" style="stop-color:#BE7626"/>
		</radialGradient>
		<path class="st1" d="M28.6,2.8c-3.3,11.3-3.7,18.1-3.3,25.5c-0.1,2.9-0.2,5.8-0.5,8.7c-0.2,1.5-0.7,3.7-0.9,4.4
			c-0.1,0.7-0.7,3-0.7,3.1s-0.3,0.7-0.4,1.4c-0.1,0.6,0.1,1,0.5,1.2c2.6,1.2,5,1.9,8,2.3c3,0.6,5.5,0.8,8.3,0.5
			c0.4-0.1,0.7-0.4,0.8-1s0.1-1.3,0.1-1.4c0-0.1,0.2-2.4,0.4-3.2c0.1-0.7,0.3-3,0.7-4.5c0.8-2.8,1.5-5.5,2.4-8.4
			c2.8-6.9,4.7-13.4,5.4-25.2C46.2,3.7,32.2,1.3,28.6,2.8z"/>
		<path class="st2" d="M26.8,10.2c7.2,0.6,14.6,1.7,21.7,3.8l0.5-3.3c0.2-1.5,0.2-3.1,0.3-4.8c-0.7-5.1-15.6-8-20.6-3.6
			C27.9,5.2,27.3,7.8,26.8,10.2L26.8,10.2z"/>
		
			<linearGradient id="SVGID_2_" gradientUnits="userSpaceOnUse" x1="-1729.1367" y1="728.296" x2="-1729.2646" y2="725.8536" gradientTransform="matrix(13.3885 2.3015 2.3015 -13.3885 21520.457 13744.498)">
			<stop  offset="0" style="stop-color:#854115"/>
			<stop  offset="0.33" style="stop-color:#8F4316"/>
			<stop  offset="0.56" style="stop-color:#935022"/>
			<stop  offset="1" style="stop-color:#AC6F18"/>
		</linearGradient>
		<path class="st3" d="M36.3,49.5c0.9-6.3,1.3-11.8,3.6-19.4c2.1-6.4,3.3-11,4-17.4l4.7,1.2l0,0C47.7,21,46.1,26.2,44,31.4
			c-1.5,4.6-2.4,8.2-3.1,13c-0.1,0.7-0.4,3.2-0.4,3.3s0.1,0.8-0.1,1.4c-0.1,0.6-0.4,0.9-0.8,1c-1.1,0.1-2.1,0.2-3.2,0.1
			C36.3,49.9,36.4,49.8,36.3,49.5z"/>
		
			<radialGradient id="SVGID_3_" cx="-1729.1996" cy="727.1075" r="1.1472" gradientTransform="matrix(13.3885 2.3015 2.3015 -13.3885 21520.457 13744.498)" gradientUnits="userSpaceOnUse">
			<stop  offset="0" style="stop-color:#FCDB38"/>
			<stop  offset="0.2686" style="stop-color:#F1B81D"/>
			<stop  offset="1" style="stop-color:#BE7626"/>
		</radialGradient>
		<path class="st4" d="M36,49.4c0.9-6.3,1.3-11.8,3.6-19.4c2.1-6.4,3.3-10.9,4-17.4l4.7,1.2l0,0c-0.9,7.2-2.6,12.1-4.6,17.4
			c-1.7,4.6-2.7,8.1-3.1,13c0,0.8-0.4,3.2-0.4,3.3s0.1,0.8-0.1,1.4c-0.1,0.6-0.4,0.9-0.8,1c-1.1,0.1-2.1,0.2-3.2,0.1
			C36.1,49.9,36.1,49.7,36,49.4z"/>
		
			<linearGradient id="SVGID_4_" gradientUnits="userSpaceOnUse" x1="-1730.4608" y1="728.7717" x2="-1728.7892" y2="728.7717" gradientTransform="matrix(13.3885 2.3015 2.3015 -13.3885 21520.457 13744.498)">
			<stop  offset="0" style="stop-color:#A6906C"/>
			<stop  offset="7.000000e-02" style="stop-color:#AF9B7B"/>
			<stop  offset="0.22" style="stop-color:#CDBFAD"/>
			<stop  offset="0.6172" style="stop-color:#F3F1EE"/>
			<stop  offset="1" style="stop-color:#FFFFFF"/>
		</linearGradient>
		<path class="st5" d="M26.9,10.2c12.2,1.5,20.7,3.6,21.7,3.8l0.4-3.4c0.2-1.5,0.2-3.1,0.3-4.8c-0.9-4.4-15.7-8.4-20.6-3.5
			C27.9,5.2,27.3,7.8,26.9,10.2C26.8,10.2,26.9,10.2,26.9,10.2z"/>
		<path class="st6" d="M29.7,2.7c-0.8,2.3-1.5,5.1-2,7.5c0,0,0.8,0.1,2.1,0.3c0-0.7,0.7-4,1.9-7.4C31.7,2.9,30.7,2.7,29.7,2.7z"/>
		<path class="st7" d="M49.4,6.1c0.1-0.2,0.1-0.4-0.1-0.6c-5.1-2-12-3.2-20-3.4c-0.7,0-0.6,0.4-0.6,0.5c0.1-0.1,0.2-0.2,0.5-0.2
			c8,0.2,14.9,1.4,20,3.4C49.3,5.9,49.3,6,49.4,6.1z"/>
		<path class="st2" d="M46,7.1L46.8,7c0-0.8,0.1-1.1,0-1.8c0,0-0.4-0.1-0.8-0.1V7.1L46,7.1z M45.2,13.1l0.6,0.1
			c0.3-1.7,0.6-4.1,0.8-5.7l-0.7,0.2l-0.2,2.9L45.2,13.1L45.2,13.1z"/>
		<path class="st2" d="M43.2,4.4c0,1.1-0.1,2.3-0.3,3.3l2.8-0.5c0-0.8,0-1.6,0.1-2.2C45.8,5,43.3,4.5,43.2,4.4L43.2,4.4z M42.8,8.4
			l2.8-0.7c-0.2,1.5-0.4,3.6-0.8,5.2c-0.9-0.2-1.9-0.5-2.9-0.6C42.3,11.1,42.7,9.6,42.8,8.4z"/>
		
			<linearGradient id="SVGID_5_" gradientUnits="userSpaceOnUse" x1="-1730.473" y1="728.2782" x2="-1730.3888" y2="725.8666" gradientTransform="matrix(13.3885 2.3015 2.3015 -13.3885 21520.457 13744.498)">
			<stop  offset="0" style="stop-color:#854115"/>
			<stop  offset="0.33" style="stop-color:#8F4316"/>
			<stop  offset="0.56" style="stop-color:#935022"/>
			<stop  offset="1" style="stop-color:#AC6F18"/>
		</linearGradient>
		<path class="st8" d="M25,46.9c1.3-6.3,1.7-10.9,1.9-18.9c0.2-6.7-0.1-11.4,1.3-17.7L26.7,10l0,0c-1.5,7.1-1.8,12.5-1.5,18
			c-0.1,2.9-0.2,5.8-0.6,8.8c-0.2,1.5-0.7,3.8-0.9,4.5c-0.1,0.7-0.7,3-0.7,3.1s-0.3,0.7-0.4,1.4c-0.1,0.6,0.1,1,0.5,1.2
			c1,0.5,0.8,0.4,1.8,0.7C25.1,47.7,24.9,47,25,46.9z"/>
		
			<radialGradient id="SVGID_6_" cx="-1730.3867" cy="727.1758" r="1.1167" gradientTransform="matrix(13.3885 2.3015 2.3015 -13.3885 21520.457 13744.498)" gradientUnits="userSpaceOnUse">
			<stop  offset="0.3124" style="stop-color:#FCD855"/>
			<stop  offset="0.7802" style="stop-color:#F6B635"/>
			<stop  offset="1" style="stop-color:#BE7626"/>
		</radialGradient>
		<path class="st9" d="M25.5,47.2c1.3-6.3,2.1-10.4,2.4-18.4c0.2-6.7,0.4-12,1.8-18.4l-2.6-0.3l0,0c-1.5,7.1-1.8,12.5-1.5,18
			c-0.1,2.9-0.2,5.8-0.6,8.8c-0.2,1.5-0.7,3.8-0.9,4.5c-0.1,0.7-0.7,3.1-0.7,3.2c0,0.1-0.3,0.7-0.4,1.4c-0.1,0.6,0.1,1,0.5,1.2
			c1,0.5,0.4,0.4,1.4,0.6C25.1,47.7,25.4,47.4,25.5,47.2z"/>
		
			<linearGradient id="SVGID_7_" gradientUnits="userSpaceOnUse" x1="-1730.3613" y1="725.6618" x2="-1729.1714" y2="725.6618" gradientTransform="matrix(13.3885 2.3015 2.3015 -13.3885 21520.457 13744.498)">
			<stop  offset="0" style="stop-color:#7E6D45"/>
			<stop  offset="0.12" style="stop-color:#80704A"/>
			<stop  offset="0.29" style="stop-color:#E7E2E0"/>
			<stop  offset="0.4" style="stop-color:#ECE7E6"/>
			<stop  offset="0.46" style="stop-color:#FFFFFF"/>
			<stop  offset="0.58" style="stop-color:#F0ECEC"/>
			<stop  offset="0.7" style="stop-color:#E3DEDC"/>
			<stop  offset="0.77" style="stop-color:#7E6D45"/>
			<stop  offset="1" style="stop-color:#785D39"/>
		</linearGradient>
		<path class="st10" d="M23.2,44.6c2.6,2.8,15.9,4.1,17.3,3c0,0,0,0,0,0.1s0.1,0.8-0.1,1.4c-0.1,0.6-0.4,0.9-0.8,1
			c-2.9,0.3-5.4,0.2-8.3-0.4c-3.1-0.4-5.4-1.1-8-2.4c-0.3-0.2-0.6-0.7-0.5-1.2C22.9,45.4,23.2,44.7,23.2,44.6L23.2,44.6z"/>
		
			<linearGradient id="SVGID_8_" gradientUnits="userSpaceOnUse" x1="-1729.3231" y1="725.7258" x2="-1729.276" y2="725.5615" gradientTransform="matrix(13.3885 2.3015 2.3015 -13.3885 21520.457 13744.498)">
			<stop  offset="0" style="stop-color:#CDD1CB"/>
			<stop  offset="0.36" style="stop-color:#B7A167"/>
			<stop  offset="0.53" style="stop-color:#C68714"/>
			<stop  offset="0.59" style="stop-color:#C38914"/>
			<stop  offset="0.8" style="stop-color:#B4A58F"/>
			<stop  offset="1" style="stop-color:#FFFFFF"/>
		</linearGradient>
		<path class="st11" d="M36.5,48c0.6,0.5,2.3,0.6,3,0.8c-0.4,0.1-0.7,0.2-1.1,0.3c0,0,0.7,0,0.8,0s0.1,0.2,0.1,0.2
			c0,0.1,0,0.2,0,0.3c-0.1,0-0.2,0-0.3,0c-1.3,0.2-2.6,0.1-3.9,0c-1.4,0.6,3.7,0.2,3.9,0.3c0.7-0.1,0.8,0,0.6,0.1
			c-0.1,0.1-0.3,0.1-0.3,0.1l0,0c0.2,0,0.3,0,0.5,0c0.4-0.1,0.7-0.4,0.8-1s0.1-1.3,0.1-1.4l0,0h-0.1c-0.3,0.1-0.9,0.3-1.7,0.4
			C38,47.9,37.2,48,36.5,48z"/>
	</g>
</g>
<g>
	<ellipse transform="matrix(0.9855 -0.1694 0.1694 0.9855 -7.9454 4.2558)" class="st0" cx="21" cy="48.7" rx="4.4" ry="0.3"/>
	<g>
		
			<radialGradient id="SVGID_9_" cx="-1864.243" cy="704.1596" r="1.939" gradientTransform="matrix(-13.3885 2.3015 -2.3015 -13.3885 -23320.3672 13744.498)" gradientUnits="userSpaceOnUse">
			<stop  offset="0" style="stop-color:#FEF6A6"/>
			<stop  offset="0.2084" style="stop-color:#FEFF9E"/>
			<stop  offset="0.4781" style="stop-color:#FCD855"/>
			<stop  offset="0.7153" style="stop-color:#F6D120"/>
			<stop  offset="1" style="stop-color:#BE7626"/>
		</radialGradient>
		<path class="st12" d="M3,6.3c0.7,11.8,2.6,18.4,5.4,25.2c0.9,2.8,1.6,5.5,2.4,8.4c0.3,1.5,0.5,3.7,0.7,4.5
			c0.1,0.7,0.3,3.1,0.4,3.2c-0.2,0-0.2,0.7-0.1,1.3c0.1,0.6,0.4,0.9,0.8,1c2.8,0.3,5.3,0.1,8.3-0.5c3-0.4,5.3-1.1,8-2.3
			c0.3-0.2,0.6-0.6,0.5-1.2c-0.1-0.6-0.4-1.3-0.4-1.4c0-0.1-0.6-2.4-0.7-3.1c-0.1-0.7-0.7-2.9-0.9-4.4c-0.3-2.9-0.4-5.7-0.5-8.7
			c0.3-7.4-0.1-14.2-3.3-25.5C20,1.3,6,3.7,3,6.3z"/>
		<path class="st2" d="M25.4,10.2c-0.5-2.4-1.1-4.9-1.9-7.9C18.4-2.1,3.6,0.8,2.8,5.9C2.9,7.6,3,9.2,3.1,10.7L3.7,14
			C10.8,11.9,18.1,10.8,25.4,10.2L25.4,10.2z"/>
		
			<linearGradient id="SVGID_10_" gradientUnits="userSpaceOnUse" x1="-1863.493" y1="705.1998" x2="-1863.6211" y2="702.7573" gradientTransform="matrix(-13.3885 2.3015 -2.3015 -13.3885 -23320.3672 13744.498)">
			<stop  offset="0" style="stop-color:#854115"/>
			<stop  offset="0.33" style="stop-color:#8F4316"/>
			<stop  offset="0.56" style="stop-color:#935022"/>
			<stop  offset="1" style="stop-color:#AC6F18"/>
		</linearGradient>
		<path class="st13" d="M15.7,50.2c-1,0.1-2.1,0-3.2-0.1c-0.4-0.1-0.7-0.4-0.8-1s0-1.3-0.1-1.4c0-0.1-0.2-2.5-0.4-3.3
			c-0.6-4.8-1.6-8.4-3.1-13C6,26.2,4.5,21,3.5,13.9l0,0l4.7-1.2c0.7,6.4,2,11,4,17.4c2.4,7.6,2.7,13.1,3.6,19.4
			C15.8,49.8,15.8,49.9,15.7,50.2z"/>
		
			<radialGradient id="SVGID_11_" cx="-1863.557" cy="704.0112" r="1.1472" gradientTransform="matrix(-13.3885 2.3015 -2.3015 -13.3885 -23320.3672 13744.498)" gradientUnits="userSpaceOnUse">
			<stop  offset="0" style="stop-color:#FCDB38"/>
			<stop  offset="0.2686" style="stop-color:#F1B81D"/>
			<stop  offset="1" style="stop-color:#BE7626"/>
		</radialGradient>
		<path class="st14" d="M15.9,50c-1,0.1-2.1,0-3.2-0.1c-0.4-0.1-0.7-0.4-0.8-1s0-1.3-0.1-1.4c0-0.1-0.3-2.5-0.4-3.3
			c-0.4-4.9-1.4-8.4-3.1-13c-2-5.3-3.7-10.2-4.6-17.4l0,0l4.7-1.2c0.7,6.5,2,11,4,17.4c2.4,7.6,2.7,13.1,3.6,19.4
			C16.1,49.7,16,49.9,15.9,50z"/>
		
			<linearGradient id="SVGID_12_" gradientUnits="userSpaceOnUse" x1="-1864.8182" y1="705.6764" x2="-1863.1465" y2="705.6764" gradientTransform="matrix(-13.3885 2.3015 -2.3015 -13.3885 -23320.3672 13744.498)">
			<stop  offset="0" style="stop-color:#A6906C"/>
			<stop  offset="7.000000e-02" style="stop-color:#AF9B7B"/>
			<stop  offset="0.22" style="stop-color:#CDBFAD"/>
			<stop  offset="0.6172" style="stop-color:#F3F1EE"/>
			<stop  offset="1" style="stop-color:#FFFFFF"/>
		</linearGradient>
		<path class="st15" d="M25.3,10.2c-0.4-2.4-1-5-1.8-7.9c-4.9-5-19.7-0.9-20.6,3.5C3,7.5,3.1,9.1,3.2,10.6L3.6,14
			C4.6,13.8,13.1,11.7,25.3,10.2C25.3,10.2,25.4,10.2,25.3,10.2z"/>
		<path class="st6" d="M20.4,3c1.3,3.4,1.9,6.7,1.9,7.4c1.3-0.2,2.1-0.3,2.1-0.3c-0.5-2.4-1.3-5.1-2-7.5C21.4,2.7,20.4,2.9,20.4,3z"
			/>
		<path class="st7" d="M2.9,5.9c5.1-2,12-3.2,20-3.4c0.3,0,0.4,0.1,0.5,0.2c0.1-0.1,0.1-0.5-0.6-0.6c-8,0.2-14.9,1.4-20,3.4
			c-0.1,0.2-0.2,0.4,0,0.6C2.8,6,2.8,5.9,2.9,5.9z"/>
		<path class="st2" d="M6.2,7.1V5C5.7,5.1,5.4,5.2,5.4,5.2c-0.1,0.7,0,1.1,0,1.8L6.2,7.1L6.2,7.1z M6.9,13.1l-0.4-2.5L6.2,7.7
			L5.5,7.5c0.2,1.6,0.5,4,0.8,5.7L6.9,13.1L6.9,13.1z"/>
		<path class="st2" d="M9,4.4C8.9,4.5,6.4,5,6.4,5c0,0.7,0.1,1.4,0.1,2.2l2.8,0.6C9.1,6.7,9,5.6,9,4.4L9,4.4z M10.2,12.3
			c-0.9,0.1-1.9,0.4-2.9,0.6C7,11.4,6.7,9.2,6.6,7.7l2.8,0.7C9.5,9.6,9.8,11.1,10.2,12.3z"/>
		
			<linearGradient id="SVGID_13_" gradientUnits="userSpaceOnUse" x1="-1864.8256" y1="705.1821" x2="-1864.7416" y2="702.7706" gradientTransform="matrix(-13.3885 2.3015 -2.3015 -13.3885 -23320.3672 13744.498)">
			<stop  offset="0" style="stop-color:#854115"/>
			<stop  offset="0.33" style="stop-color:#8F4316"/>
			<stop  offset="0.56" style="stop-color:#935022"/>
			<stop  offset="1" style="stop-color:#AC6F18"/>
		</linearGradient>
		<path class="st16" d="M27.2,47.8c1-0.3,0.8-0.2,1.8-0.7c0.3-0.2,0.6-0.6,0.5-1.2c-0.1-0.6-0.4-1.3-0.4-1.4c0-0.1-0.6-2.4-0.7-3.1
			c-0.1-0.7-0.7-3-0.9-4.5c-0.3-3-0.4-5.8-0.6-8.8c0.3-5.6,0-11-1.5-18l0,0l-1.5,0.3c1.5,6.3,1.1,11,1.3,17.7
			c0.2,8,0.6,12.6,1.9,18.8C27.2,47,27.1,47.7,27.2,47.8z"/>
		
			<radialGradient id="SVGID_14_" cx="-1864.744" cy="704.0795" r="1.1167" gradientTransform="matrix(-13.3885 2.3015 -2.3015 -13.3885 -23320.3672 13744.498)" gradientUnits="userSpaceOnUse">
			<stop  offset="0.3124" style="stop-color:#FCD855"/>
			<stop  offset="0.7802" style="stop-color:#F6B635"/>
			<stop  offset="1" style="stop-color:#BE7626"/>
		</radialGradient>
		<path class="st17" d="M27.2,47.9c1-0.3,0.4-0.2,1.4-0.6c0.3-0.2,0.6-0.6,0.5-1.2c-0.1-0.6-0.4-1.3-0.4-1.4c0-0.1-0.6-2.5-0.7-3.2
			s-0.7-3-0.9-4.5c-0.3-3-0.4-5.8-0.6-8.8c0.3-5.6,0-11-1.5-18l0,0l-2.6,0.3c1.4,6.3,1.6,11.6,1.8,18.4c0.3,8,1.1,12.2,2.4,18.4
			C26.7,47.4,27.1,47.7,27.2,47.9z"/>
		
			<linearGradient id="SVGID_15_" gradientUnits="userSpaceOnUse" x1="-1864.7186" y1="702.5669" x2="-1863.5288" y2="702.5669" gradientTransform="matrix(-13.3885 2.3015 -2.3015 -13.3885 -23320.3672 13744.498)">
			<stop  offset="0" style="stop-color:#7E6D45"/>
			<stop  offset="0.12" style="stop-color:#80704A"/>
			<stop  offset="0.29" style="stop-color:#E7E2E0"/>
			<stop  offset="0.4" style="stop-color:#ECE7E6"/>
			<stop  offset="0.46" style="stop-color:#FFFFFF"/>
			<stop  offset="0.58" style="stop-color:#F0ECEC"/>
			<stop  offset="0.7" style="stop-color:#E3DEDC"/>
			<stop  offset="0.77" style="stop-color:#7E6D45"/>
			<stop  offset="1" style="stop-color:#785D39"/>
		</linearGradient>
		<path class="st18" d="M28.9,44.6c0,0.2,0.3,0.8,0.3,1.5c0.1,0.6-0.1,1-0.5,1.2c-2.5,1.3-4.9,2-8,2.4c-2.9,0.6-5.4,0.6-8.3,0.4
			c-0.4-0.1-0.7-0.4-0.8-1s0-1.3-0.1-1.4c0-0.1,0-0.1,0-0.1C13,48.6,26.3,47.4,28.9,44.6L28.9,44.6z"/>
		
			<linearGradient id="SVGID_16_" gradientUnits="userSpaceOnUse" x1="-1863.689" y1="702.6271" x2="-1863.642" y2="702.463" gradientTransform="matrix(-13.3885 2.3015 -2.3015 -13.3885 -23320.3672 13744.498)">
			<stop  offset="0" style="stop-color:#CDD1CB"/>
			<stop  offset="0.36" style="stop-color:#B7A167"/>
			<stop  offset="0.53" style="stop-color:#C68714"/>
			<stop  offset="0.59" style="stop-color:#C38914"/>
			<stop  offset="0.8" style="stop-color:#B4A58F"/>
			<stop  offset="1" style="stop-color:#FFFFFF"/>
		</linearGradient>
		<path class="st19" d="M13.4,48c-0.8-0.1-1.4-0.2-1.7-0.4h-0.1l0,0c-0.1,0.1,0,0.8,0.1,1.4s0.4,0.9,0.8,1c0.2,0,0.3,0,0.5,0l0,0
			c0,0-0.2-0.1-0.3-0.1c-0.1-0.1,0-0.2,0.6-0.1c0.2,0,5.3,0.3,3.9-0.3c-1.3,0.1-2.6,0.2-3.9,0c-0.1,0-0.2,0-0.3,0c0-0.1,0-0.2,0-0.3
			c0,0,0-0.2,0.1-0.2s0.8,0,0.8,0c-0.4-0.1-0.7-0.2-1.1-0.3c0.7-0.2,2.4-0.3,3-0.8C14.9,48,14.2,47.9,13.4,48z"/>
	</g>
</g>
<g>
	<ellipse class="st0" cx="25.3" cy="50.1" rx="4.4" ry="0.3"/>
	<g>
		
			<radialGradient id="SVGID_17_" cx="-1736.0253" cy="714.8379" r="1.939" gradientTransform="matrix(13.5849 0 0 -13.5849 23607.623 9738.5381)" gradientUnits="userSpaceOnUse">
			<stop  offset="0" style="stop-color:#FEF6A6"/>
			<stop  offset="0.2084" style="stop-color:#FEFF9E"/>
			<stop  offset="0.4781" style="stop-color:#FCD855"/>
			<stop  offset="0.7153" style="stop-color:#F6D120"/>
			<stop  offset="1" style="stop-color:#BE7626"/>
		</radialGradient>
		<path class="st20" d="M14.9,5.3c-1.3,11.7-0.6,18.5,1,25.7c0.4,2.9,0.8,5.7,0.9,8.6c0.1,1.5-0.1,3.8-0.1,4.5
			c0,0.8-0.2,3.1-0.2,3.2c0,0.1-0.2,0.8-0.2,1.4c0,0.7,0.3,0.9,0.7,1.1c2.8,0.8,5.3,1,8.3,0.9c3.1,0.1,5.5-0.2,8.3-0.9
			c0.4-0.2,0.7-0.6,0.7-1.1c0-0.7-0.1-1.3-0.2-1.4c0-0.1-0.2-2.4-0.2-3.2s-0.2-3-0.1-4.5c0.3-2.9,0.6-5.7,0.9-8.6
			c1.6-7.2,2.3-14,1-25.7C32.4,3.2,18.2,3.2,14.9,5.3z"/>
		<path class="st2" d="M14.4,12.9c7.2-0.7,14.6-0.8,22.1,0.1l-0.1-3.4c-0.1-1.5-0.3-3.1-0.5-4.8c-1.6-4.9-16.7-5.3-20.9,0
			C14.7,7.8,14.5,10.4,14.4,12.9L14.4,12.9z"/>
		
			<linearGradient id="SVGID_18_" gradientUnits="userSpaceOnUse" x1="-1735.2769" y1="715.8781" x2="-1735.4048" y2="713.4357" gradientTransform="matrix(13.5849 0 0 -13.5849 23607.623 9738.5381)">
			<stop  offset="0" style="stop-color:#854115"/>
			<stop  offset="0.33" style="stop-color:#8F4316"/>
			<stop  offset="0.56" style="stop-color:#935022"/>
			<stop  offset="1" style="stop-color:#AC6F18"/>
		</linearGradient>
		<path class="st21" d="M30.4,50c-0.1-6.4-0.7-11.9,0.3-19.8c0.9-6.7,1.4-11.4,1-17.8l4.8,0.4l0,0c0.3,7.2-0.4,12.6-1.6,18
			c-0.7,4.8-1,8.5-0.8,13.3c0,0.8,0.2,3.2,0.2,3.3s0.2,0.8,0.2,1.4c0,0.7-0.3,0.9-0.7,1.1c-1,0.3-2.1,0.6-3.1,0.7
			C30.5,50.4,30.5,50.2,30.4,50z"/>
		
			<radialGradient id="SVGID_19_" cx="-1735.3394" cy="714.6894" r="1.1472" gradientTransform="matrix(13.5849 0 0 -13.5849 23607.623 9738.5381)" gradientUnits="userSpaceOnUse">
			<stop  offset="0" style="stop-color:#FCDB38"/>
			<stop  offset="0.2686" style="stop-color:#F1B81D"/>
			<stop  offset="1" style="stop-color:#BE7626"/>
		</radialGradient>
		<path class="st22" d="M30.2,50c-0.2-6.4-0.8-11.8,0.3-19.7c0.9-6.7,1.4-11.3,1-17.8l4.8,0.4l0,0c0.2,7.1-0.6,12.3-1.6,17.8
			c-0.9,4.8-1.3,8.5-0.8,13.3c0.1,0.8,0.2,3.2,0.2,3.3s0.2,0.8,0.2,1.4c0,0.7-0.3,0.9-0.7,1.1c-1,0.3-2.1,0.6-3.1,0.7
			C30.3,50.4,30.3,50.2,30.2,50z"/>
		
			<linearGradient id="SVGID_20_" gradientUnits="userSpaceOnUse" x1="-1736.6005" y1="716.3472" x2="-1734.9288" y2="716.3472" gradientTransform="matrix(13.5849 0 0 -13.5849 23607.623 9738.5381)">
			<stop  offset="0" style="stop-color:#A6906C"/>
			<stop  offset="7.000000e-02" style="stop-color:#AF9B7B"/>
			<stop  offset="0.22" style="stop-color:#CDBFAD"/>
			<stop  offset="0.6172" style="stop-color:#F3F1EE"/>
			<stop  offset="1" style="stop-color:#FFFFFF"/>
		</linearGradient>
		<path class="st23" d="M14.5,12.9c12.3-0.6,21,0,22.1,0.1l-0.2-3.4c-0.1-1.5-0.3-3.1-0.5-4.8C34.2,0.6,19-0.9,15,4.8
			C14.7,7.8,14.5,10.4,14.5,12.9C14.4,12.9,14.5,12.9,14.5,12.9z"/>
		<path class="st6" d="M16,5c-0.4,2.4-0.7,5.3-0.8,7.7c0,0,0.8-0.1,2.2-0.1c-0.1-0.7,0-4,0.7-7.6C18,4.9,17,4.8,16,5z"/>
		<path class="st7" d="M36,5c0.1-0.2,0-0.4-0.2-0.6c-5.4-1.1-12.4-1.1-20.3,0C14.8,4.6,14.9,5,15,5.1c0.1-0.1,0.2-0.2,0.5-0.3
			c7.9-1.1,14.9-1.1,20.3,0C35.9,4.8,35.9,4.9,36,5z"/>
		<path class="st2" d="M32.8,6.6l0.8-0.3c-0.1-0.8-0.1-1.1-0.3-1.8c0,0-0.4,0-0.8,0L32.8,6.6L32.8,6.6z M33.1,12.6h0.6
			c0-1.7-0.1-4.1-0.2-5.7l-0.7,0.3l0.2,2.9L33.1,12.6L33.1,12.6z"/>
		<path class="st2" d="M29.6,4.4c0.2,1.1,0.3,2.3,0.3,3.3l2.6-1c-0.1-0.8-0.2-1.5-0.3-2.2C32.2,4.5,29.7,4.4,29.6,4.4L29.6,4.4z
			 M29.9,8.4l2.6-1.1c0.1,1.5,0.2,3.7,0.1,5.3c-0.9,0-2-0.2-2.9-0.1C29.9,11.1,30,9.6,29.9,8.4z"/>
		
			<linearGradient id="SVGID_21_" gradientUnits="userSpaceOnUse" x1="-1736.6063" y1="715.8604" x2="-1736.5221" y2="713.4488" gradientTransform="matrix(13.5849 0 0 -13.5849 23607.623 9738.5381)">
			<stop  offset="0" style="stop-color:#854115"/>
			<stop  offset="0.33" style="stop-color:#8F4316"/>
			<stop  offset="0.56" style="stop-color:#935022"/>
			<stop  offset="1" style="stop-color:#AC6F18"/>
		</linearGradient>
		<path class="st24" d="M18.9,49.3c0.2-6.4-0.2-11-1.3-18.9c-0.9-6.7-2.1-11.2-1.7-17.7h-1.5l0,0c-0.3,7.2,0.4,12.6,1.6,18
			c0.4,2.9,0.8,5.7,0.9,8.7c0.1,1.5-0.1,3.9-0.1,4.6c0,0.8-0.2,3.1-0.2,3.2c0,0.1-0.2,0.8-0.2,1.4c0,0.7,0.3,0.9,0.7,1.1
			c1,0.3,0.8,0.3,1.9,0.4C19.1,50.2,18.8,49.5,18.9,49.3z"/>
		
			<radialGradient id="SVGID_22_" cx="-1736.5264" cy="714.7577" r="1.1167" gradientTransform="matrix(13.5849 0 0 -13.5849 23607.623 9738.5381)" gradientUnits="userSpaceOnUse">
			<stop  offset="0.3124" style="stop-color:#FCD855"/>
			<stop  offset="0.7802" style="stop-color:#F6B635"/>
			<stop  offset="1" style="stop-color:#BE7626"/>
		</radialGradient>
		<path class="st25" d="M19.5,49.6c0.1-6.4,0.2-10.6-0.8-18.6c-0.9-6.7-1.6-11.9-1.3-18.4l-2.6,0.2l0,0c-0.3,7.2,0.4,12.6,1.6,18
			c0.4,2.9,0.8,5.7,0.9,8.7c0.1,1.5-0.1,3.9-0.1,4.6c0,0.8-0.2,3.2-0.2,3.3s-0.2,0.8-0.2,1.4c0,0.7,0.3,0.9,0.7,1.1
			c1,0.3,0.5,0.3,1.5,0.4C19.1,50.2,19.4,49.8,19.5,49.6z"/>
		
			<linearGradient id="SVGID_23_" gradientUnits="userSpaceOnUse" x1="-1736.501" y1="713.2499" x2="-1735.3112" y2="713.2499" gradientTransform="matrix(13.5849 0 0 -13.5849 23607.623 9738.5381)">
			<stop  offset="0" style="stop-color:#7E6D45"/>
			<stop  offset="0.12" style="stop-color:#80704A"/>
			<stop  offset="0.29" style="stop-color:#E7E2E0"/>
			<stop  offset="0.4" style="stop-color:#ECE7E6"/>
			<stop  offset="0.46" style="stop-color:#FFFFFF"/>
			<stop  offset="0.58" style="stop-color:#F0ECEC"/>
			<stop  offset="0.7" style="stop-color:#E3DEDC"/>
			<stop  offset="0.77" style="stop-color:#7E6D45"/>
			<stop  offset="1" style="stop-color:#785D39"/>
		</linearGradient>
		<path class="st26" d="M16.7,47.3c3,2.3,16.3,1.3,17.6,0c0,0,0,0,0,0.1s0.2,0.8,0.2,1.4c0,0.7-0.3,0.9-0.7,1.1
			c-2.8,0.8-5.3,1.1-8.3,1c-3.1,0.1-5.5-0.2-8.3-1c-0.4-0.2-0.7-0.6-0.7-1.1C16.5,48.2,16.7,47.5,16.7,47.3L16.7,47.3z"/>
		
			<linearGradient id="SVGID_24_" gradientUnits="userSpaceOnUse" x1="-1735.4686" y1="713.3061" x2="-1735.4216" y2="713.1419" gradientTransform="matrix(13.5849 0 0 -13.5849 23607.623 9738.5381)">
			<stop  offset="0" style="stop-color:#CDD1CB"/>
			<stop  offset="0.36" style="stop-color:#B7A167"/>
			<stop  offset="0.53" style="stop-color:#C68714"/>
			<stop  offset="0.59" style="stop-color:#C38914"/>
			<stop  offset="0.8" style="stop-color:#B4A58F"/>
			<stop  offset="1" style="stop-color:#FFFFFF"/>
		</linearGradient>
		<path class="st27" d="M30.3,48.5c0.7,0.4,2.3,0.2,3.1,0.3c-0.4,0.2-0.7,0.3-1,0.5c0,0,0.7-0.1,0.8-0.1s0.1,0.2,0.1,0.2
			c0,0.1,0,0.2,0,0.3c-0.1,0-0.2,0-0.3,0c-1.2,0.4-2.5,0.6-3.8,0.7C27.9,51.2,32.9,50,33,50c0.7-0.2,0.8-0.1,0.7,0s-0.3,0.2-0.3,0.2
			l0,0c0.2,0,0.3-0.1,0.5-0.1c0.4-0.2,0.7-0.6,0.7-1.1c0-0.7-0.1-1.3-0.2-1.4l0,0h-0.1c-0.3,0.2-0.8,0.5-1.6,0.7
			C31.9,48.2,31.1,48.4,30.3,48.5z"/>
	</g>
</g>
</svg>
